
[
  {
    "Name": "Chanderi",
    "Type_of_cloth": "Silk",
    "Village/_Town": "Chanderi",
    "District": "Ashok Nagar",
    "State_of_Origin": "Madhya Pradesh",
    "Zone": "Central",
    "Images": "https://narishakti.in/wp-content/uploads/sites/9/2021/09/chanderi.png",
    "Image": "https://images.sadhguru.org/sites/default/files/2020-07/Chanderi_0.jpg",
    "Description": "Dating back to the eleventh century, Chanderi is a small town in MP which practises an ancient handloom skill that weaves textured cotton and silk with zardozi work. The silk has historical roots from mentions in the Rig Veda (1200 BC). The material’s distinctive feature, apart from the intricately hand woven motifs, is its sheer yet strong quality created due to the yarn’s feature known as ‘Single Falture’. The streets of  Bahar Shahar in Chanderi have access to an impressive trade network as the town boasts 3500 looms .Classified into three types, i.e, Chanderi silk cotton, pure silk and Chanderi cotton.",
    "Name_of_Weaver": "Mohammed Dilshad",
    "Mobile": "9302912319, 7697363786",
    "Email": "dishad.chanderi@gmail.com",
    "Website": "",
    "Facebook": "",
    "Instagram": "",
    "Source": "https://isha.sadhguru.org/in/en/outreach/save-the-weave/indian-weaves/chanderi",
    "Refereces": "Related content: M Khanna, J. (2019). How Sanjay Garg modernised Chanderi while supporting the weaving community. Retrieved from: https://www.vogue.in/fashion/content/how-designer-sanjay-garg-modernised-chanderi-saree-while-supporting-the-weaving-community"
  },
  {
    "Name": "Jamdani",
    "Type_of_cloth": "Linen, Khadi",
    "Village/_Town": "",
    "District": "",
    "State_of_Origin": "West Bengal",
    "Zone": "East",
    "Images": "https://narishakti.in/wp-content/uploads/sites/9/2021/09/jamdani-2.png",
    "Image": "https://images.sadhguru.org/sites/default/files/2020-07/Jamdani_0.jpg",
    "Description": "Jamdani fabric is woven on a loom using hand-spun khadi cotton. The weavers take pride in the skill as both occupational and cultural identity and form a close knit community to pass on the technique to disciples. What sets it apart from other Indian textiles is that the expertise focuses on the texture of the fabric rather than color variations. The fabric usually presents a balance of both transparency and opacity as the undyed and unbleached material is embroidered or printed with monochromatic designs using bleached cotton yarns.",
    "Name_of_Weaver": "Sarika Ginodia, Karomi",
    "Mobile": "9830822300",
    "Email": "karomi.sg@gmail.com",
    "Website": "karomicrafts.com",
    "Facebook": "https://www.facebook.com/karomicrafts",
    "Instagram": "",
    "Source": "https://isha.sadhguru.org/in/en/outreach/save-the-weave/indian-weaves/jamdani",
    "Refereces": ""
  },
  {
    "Name": "Bengal Muslin",
    "Type_of_cloth": "Cotton, Khadi",
    "Village/_Town": "",
    "District": "",
    "State_of_Origin": "West Bengal",
    "Zone": "East",
    "Images": "https://images.sadhguru.org/sites/default/files/2020-07/Bengal%20Muslin.jpg",
    "Image": "https://images.sadhguru.org/sites/default/files/2020-07/Bengal%20Muslin.jpg",
    "Description": "With a millennium of history, the Bengal Muslin or Dhaka Muslin was a highly coveted fabric handwoven with fine cotton thread which is from handspun yarn. During the mughal era, this delicate yet luxurious material was produced by local artisans from Bengal. However, the brutal economic consequence of the British rule in India and commercialisation of machine made products resulted in the decline of both the industry and the number of artisans.",
    "Name_of_Weaver": "Antara Dutt, Yutis Handlooms",
    "Mobile": "8800420303, 8768860858",
    "Email": "yuti.handlooms@gmail.com",
    "Website": "yutihandlooms.com",
    "Facebook": "https://www.facebook.com/yutihandlooms",
    "Instagram": "https://www.instagram.com/yuti.handlooms/",
    "Source": "https://isha.sadhguru.org/in/en/outreach/save-the-weave/indian-weaves/bengal-muslin",
    "Refereces": "The Bengal Muslin Project. Retrieved from: http://bengalmuslin.com/vision/\n\nSave The Weave by Isha Foundation. Retrieved from:https://isha.sadhguru.org/in/en/outreach/save-the-weave"
  },
  {
    "Name": "Baha Cotton",
    "Type_of_cloth": "Cotton",
    "Village/_Town": "",
    "District": "",
    "State_of_Origin": "West Bengal",
    "Zone": "East",
    "Images": "https://images.sadhguru.org/sites/default/files/2020-07/Baha%20Cotton_0.jpg",
    "Image": "https://images.sadhguru.org/sites/default/files/2020-07/Baha%20Cotton_0.jpg",
    "Description": "Considered to be best suited for the South Asian climate, Baha cotton is a comfortable fabric originating from West Bengal. The weave is handcrafted with pure or soft cotton and silk yarns. Widely popular, the weave is used for saris and available in various colors and patterns.",
    "Name_of_Weaver": "Bappaditya Biswas, Bailou",
    "Mobile": "9830316944",
    "Email": "info@bailou.net",
    "Website": "byloomonline.com",
    "Facebook": "",
    "Instagram": "https://www.instagram.com/bailou.india/",
    "Source": "https://isha.sadhguru.org/in/en/outreach/save-the-weave/indian-weaves/baha-cotton",
    "Refereces": ""
  },
  {
    "Name": "Baluchari Silk",
    "Type_of_cloth": "Silk",
    "Village/_Town": "Baluchar",
    "District": "Murshidabad",
    "State_of_Origin": "West Bengal",
    "Zone": "East",
    "Images": "https://narishakti.in/wp-content/uploads/sites/9/2021/09/baluchari.png",
    "Image": "https://images.sadhguru.org/sites/default/files/2020-07/Baluchari-Silk.jpg",
    "Description": "Baluchari weavers crafted detailed designs inspired by mythology that became distinctive to other fabrics. Using environmentally friendly resources, the fabric utilises banana plant stems, bamboo trees and natural dyes from flowers, fruits, neem and turmeric leaves.  A noteworthy artist involved in the prevalence and revival of the weave is Shubho Thakur who introduced Baluchari master weavers to the technique of Jacquard loom.",
    "Name_of_Weaver": "Bappaditya Biswas, Bailou",
    "Mobile": "9830316944",
    "Email": "info@bailou.net",
    "Website": "byloomonline.com",
    "Facebook": "",
    "Instagram": "https://www.instagram.com/bailou.india/",
    "Source": "https://isha.sadhguru.org/in/en/outreach/save-the-weave/indian-weaves/baluchari-silk",
    "Refereces": ""
  },
  {
    "Name": "Murshiddabad Silk",
    "Type_of_cloth": "Silk",
    "Village/_Town": "",
    "District": "Murshidabad",
    "State_of_Origin": "West Bengal",
    "Zone": "East",
    "Images": "https://narishakti.in/wp-content/uploads/sites/9/2021/09/murshidabad.jpeg",
    "Image": "https://images.sadhguru.org/sites/default/files/2020-07/Murshidabad%20Silk.jpg",
    "Description": "The roots of origin for both Murshiddabad Silk and Baluchari silk are the same. However, unlike the latter, increased interactions with communities like Gujrati and Marwari traders as well as international merchants have made the Murshiddabad silk into a fine lightweight cloth with complex and vivid patterns. ",
    "Name_of_Weaver": "Bappaditya Biswas, Bailou",
    "Mobile": "9830316944",
    "Email": "info@bailou.net",
    "Website": "byloomonline.com",
    "Facebook": "",
    "Instagram": "https://www.instagram.com/bailou.india/",
    "Source": "https://isha.sadhguru.org/in/en/outreach/save-the-weave/indian-weaves/murshidabad-silk",
    "Refereces": ""
  },
  {
    "Name": "Garad Silk",
    "Type_of_cloth": "Silk",
    "Village/_Town": "",
    "District": "Murshidabad",
    "State_of_Origin": "West Bengal",
    "Zone": "East",
    "Images": "https://images.sadhguru.org/sites/default/files/2020-07/Garad%20Silk_0.jpg",
    "Image": "https://images.sadhguru.org/sites/default/files/2020-07/Garad%20Silk_0.jpg",
    "Description": "Made from mulberry silk, Garad silk has been used as a symbol of purity and hence been worn by royalty or religious heads to showcase sacred importance. The border of the sari usually features a distinctive red or maroon shade and a pallu striped with small floral motifs. In the Bengali community, women wear Garad silk sari while offering Durga Puja. A more glossier and ornamental version is the Garad-Korial saree. ",
    "Name_of_Weaver": "Bappaditya Biswas, Bailou",
    "Mobile": "9830316944",
    "Email": "info@bailou.net",
    "Website": "byloomonline.com",
    "Facebook": "",
    "Instagram": "https://www.instagram.com/bailou.india/",
    "Source": "https://isha.sadhguru.org/in/en/outreach/save-the-weave/indian-weaves/garad-silk",
    "Refereces": ""
  },
  {
    "Name": "Mekhla Cheddar",
    "Type_of_cloth": "Muga Silk",
    "Village/_Town": "Sualkuchi",
    "District": "",
    "State_of_Origin": "Assam",
    "Zone": "North East",
    "Images": "https://narishakti.in/wp-content/uploads/sites/9/2021/09/mekhala-sador.png",
    "Image": "https://images.sadhguru.org/sites/default/files/2020-07/Mekhla%20Cheddar_1.jpg",
    "Description": "Primarily crafted in Sualkuchi (Silk Village) of Assam, the weavers use Muga Silk, one of the rarest silk in the world to make the traditional garments of the State such as the Mekhela Chador. Similar to wine and cheese, this fabric is known for becoming more lustrous with time and is worn with pride by the Assamese community. The material is available in its signature and natural Muga Silk gold tones as well as other colour variations. The silk has also been incorporated into cotton fabric to be used in manufacturing comfortable daily wear.",
    "Name_of_Weaver": "Anuradha Kuli, Naturally Anuradha",
    "Mobile": "8761959272, 9864075276",
    "Email": "naturallyanuradha@gmail.com",
    "Website": "naturallyanuradha.org",
    "Facebook": "https://www.facebook.com/naturallyanu",
    "Instagram": "",
    "Source": "https://isha.sadhguru.org/in/en/outreach/save-the-weave/indian-weaves/mekhla-cheddar",
    "Refereces": ""
  },
  {
    "Name": "Bomkai",
    "Type_of_cloth": "Silk",
    "Village/_Town": "Bomkai",
    "District": "Ganjam",
    "State_of_Origin": "Orissa",
    "Zone": "East",
    "Images": "https://narishakti.in/wp-content/uploads/sites/9/2021/09/bomkai.png",
    "Image": "https://images.sadhguru.org/sites/default/files/2020-07/Bomkai%20Silk_0.jpg",
    "Description": "With origins from 600 BC, Bomkai silk also known as Sonepuri is a material handcrafted using techniques of ikat and embroidery which are interwoven with each other. The borders of the cloth have contrasting colours and the pallu weave illustrates the mythology and traditions using special motifs that are exclusive to Odisha. These motifs influenced by tribal art also depict ancient beliefs and are worn as auspicious symbols.",
    "Name_of_Weaver": "Gunjan Jain, Vriksh",
    "Mobile": "",
    "Email": "virksh.orissa@gmail.com",
    "Website": "vrikshdesigns.com",
    "Facebook": "https://www.facebook.com/vrikshdesigns/",
    "Instagram": "https://www.instagram.com/vrikshdesigns/",
    "Source": "https://isha.sadhguru.org/in/en/outreach/save-the-weave/indian-weaves/bomkai-silk",
    "Refereces": ""
  },
  {
    "Name": "Panchachuli",
    "Type_of_cloth": "Linen, Silk, Wool",
    "Village/_Town": "Almoa, Kumaon ",
    "District": "Pithoragarh",
    "State_of_Origin": "Uttarakhand",
    "Zone": "North",
    "Images": "https://narishakti.in/wp-content/uploads/sites/9/2021/09/panchachuli.jpeg",
    "Image": "https://images.sadhguru.org/sites/default/files/2020-08/Panchachuli%20Weave.jpg",
    "Description": "Panchachuli weave is a fabric using sheep and merino wool along with Pashmina and silk and either woven or knitted by hand. They are being produced by women living near the Indo-Tibet border at the foothills of Panchachuli mountain ranges. Using biodegradable and organic dyes, the weaves hand spin or knit shawls, blankets and other clothing.",
    "Name_of_Weaver": "Rashmi Bharti, Avani",
    "Mobile": "",
    "Email": "info@avani-kumaon.org",
    "Website": "avani-earthcraft.com",
    "Facebook": "https://www.facebook.com/avanikumaon1",
    "Instagram": "https://www.instagram.com/avani.earthcraft/",
    "Source": "https://isha.sadhguru.org/in/en/outreach/save-the-weave/indian-weaves/panchachuli-weave",
    "Refereces": ""
  },
  {
    "Name": "Banarasi",
    "Type_of_cloth": "Silk",
    "Village/_Town": "",
    "District": "Varanasi",
    "State_of_Origin": "Uttar Pradesh",
    "Zone": "North",
    "Images": "https://narishakti.in/wp-content/uploads/sites/9/2021/09/banarasi.png",
    "Image": "https://images.sadhguru.org/sites/default/files/2020-07/Banarasi%20Kimkhab.jpg",
    "Description": "Banarasi features heavy zari work on silk. It emerged in Benaras from Tibet showcasing the influence of techniques and patterns from the Chinese jacquard and Buddhist-inspired designs. The extensive process requires high dexterity and is divided into Tashi Kimkhwab (only silver and gold threads) and those made from colored silk threads.",
    "Name_of_Weaver": "Nilambari Sarees",
    "Mobile": "9415221270, 8800477886, 9391068915",
    "Email": "nilambarisarees@hotmail.com",
    "Website": "",
    "Facebook": "https://www.facebook.com/Nilambarisarees",
    "Instagram": "https://www.instagram.com/nilambarisarees/",
    "Source": "https://isha.sadhguru.org/in/en/outreach/save-the-weave/indian-weaves/banarasi-kimkhab",
    "Refereces": ""
  },
  {
    "Name": "Kosa",
    "Type_of_cloth": "Silk",
    "Village/_Town": "Champa and Korba",
    "District": "",
    "State_of_Origin": "Chhattisgarh",
    "Zone": "North",
    "Images": "https://images.sadhguru.org/sites/default/files/2020-07/Kosa%20Silk_0.jpg",
    "Image": "https://images.sadhguru.org/sites/default/files/2020-07/Kosa%20Silk_0.jpg",
    "Description": "A variety of Tussar Silk, this material requires silkworms cocooned on specific trees (arjun, saja and sal) to create its strong quality. The process is made more complex due to the rarity of the Kosa worm. The high quality silk produced in Champa, Chhattisgarh is exported across the globe.",
    "Name_of_Weaver": "Sapna Vedula Dhawla, Unma Designs",
    "Mobile": "9711811564",
    "Email": "unmadesigns@gmail.com",
    "Website": "",
    "Facebook": "",
    "Instagram": "",
    "Source": "https://isha.sadhguru.org/in/en/outreach/save-the-weave/indian-weaves/kosa-silk",
    "Refereces": ""
  },
  {
    "Name": "Bhujodi",
    "Type_of_cloth": "Wool, Silk, Cotton",
    "Village/_Town": "Bhujodi",
    "District": "Kutch",
    "State_of_Origin": "Gujarat",
    "Zone": "West",
    "Images": "https://narishakti.in/wp-content/uploads/sites/9/2021/09/bhujodi.png",
    "Image": "https://images.sadhguru.org/sites/default/files/2020-07/Bhujodi_1.jpg",
    "Description": "The Bhujodi weaves also known as Kutch weaving, bears a significant cultural history, from the weaver’s symbiotic relationship with nomadic groups for wool to their lineage as descendants from the Meghwal (Marwada) clan. Produced in Kutch, the Kutch shawl has been granted the Geographical Identification (GI) tag. The weaves feature finemotifs, embroidery and mirror work.",
    "Name_of_Weaver": "Khamir",
    "Mobile": "9099908050",
    "Email": "",
    "Website": "khamir.org",
    "Facebook": "https://www.facebook.com/khamircrafts",
    "Instagram": "https://www.instagram.com/khamircrafts/",
    "Source": "https://isha.sadhguru.org/in/en/outreach/save-the-weave/indian-weaves/bhujodi-weave-of-kutch",
    "Refereces": ""
  },
  {
    "Name": "Mashru",
    "Type_of_cloth": "Cotton, Silk",
    "Village/_Town": "",
    "District": "Kutch",
    "State_of_Origin": "Gujarat",
    "Zone": "West",
    "Images": "https://narishakti.in/wp-content/uploads/sites/9/2021/09/mashru.png",
    "Image": "https://images.sadhguru.org/sites/default/files/2020-07/Mashroo.jpg",
    "Description": "A seamless blend of cotton and silk, Mashroo fabric is another example of the numerous indigenous weaves from Gujarat.",
    "Name_of_Weaver": "Khamir",
    "Mobile": "9099908050",
    "Email": "",
    "Website": "khamir.org",
    "Facebook": "https://www.facebook.com/khamircrafts",
    "Instagram": "https://www.instagram.com/khamircrafts/",
    "Source": "https://isha.sadhguru.org/in/en/outreach/save-the-weave/indian-weaves/mashru-of-gujarat",
    "Refereces": ""
  },
  {
    "Name": "Tanchoi",
    "Type_of_cloth": "Silk",
    "Village/_Town": "",
    "District": "Kutch",
    "State_of_Origin": "Gujarat",
    "Zone": "West",
    "Images": "https://narishakti.in/wp-content/uploads/sites/9/2021/09/tanchoi.png",
    "Image": "https://images.sadhguru.org/sites/default/files/2020-07/Tanchoi%20Silk_0.jpg",
    "Description": "Spotted at the surface and woven with a dual cover wrap, Tanchoi sarees have a satin finish. Brought to India by Chinese traders, the fabric has intricate patterns and motifs of flowers and birds. ",
    "Name_of_Weaver": "Khamir",
    "Mobile": "9099908050",
    "Email": "",
    "Website": "khamir.org",
    "Facebook": "https://www.facebook.com/khamircrafts",
    "Instagram": "https://www.instagram.com/khamircrafts/",
    "Source": "https://isha.sadhguru.org/in/en/outreach/save-the-weave/indian-weaves/tanchoi",
    "Refereces": ""
  },
  {
    "Name": "Tangaliya",
    "Type_of_cloth": "Wool, Cotton, Acrylic, Silk",
    "Village/_Town": "Derwada",
    "District": "Surendranagar",
    "State_of_Origin": "Gujarat",
    "Zone": "West",
    "Images": "https://narishakti.in/wp-content/uploads/sites/9/2021/09/tangalia.png",
    "Image": "https://images.sadhguru.org/sites/default/files/2020-08/Tangaliya.jpg",
    "Description": "Made by the Dangasia community, Tangaliya is a 700 year old indigenous craft is native to the Surendranagar district. The weave requires precise mathematical calculations to be used on the loom so that it can weave knots in colors contrasting to the warp color to create the effect of raised dots. ",
    "Name_of_Weaver": "Khamir",
    "Mobile": "9099908050",
    "Email": "",
    "Website": "khamir.org",
    "Facebook": "https://www.facebook.com/khamircrafts",
    "Instagram": "https://www.instagram.com/khamircrafts/",
    "Source": "https://isha.sadhguru.org/in/en/outreach/save-the-weave/indian-weaves/tangaliya",
    "Refereces": ""
  },
  {
    "Name": "Ajrak Prints",
    "Type_of_cloth": "Cotton, Silk",
    "Village/_Town": "Ajrakhpur",
    "District": "Kutch",
    "State_of_Origin": "Gujarat",
    "Zone": "West",
    "Images": "https://narishakti.in/wp-content/uploads/sites/9/2021/09/ajrakh.png",
    "Image": "https://isha.sadhguru.org/sites/default/files/2020-08/Ajrak%20Prints-01.JPG",
    "Description": "The technique uses a wooden hand block which has been intricately carved and dipped in dye to be printed on cotton and silk fabrics. Printed within a grid, the repetitive design creates a web-like pattern. The process celebrates nature as the dyes are resourced from natural pigments (indigo, madder, camel dung, lime, iron deposits), the cloth used is either handwoven or handspun and the motifs carved also symbolise nature and the elements. The technique used finds roots dating back to the Indus Valley Civilisation (2500 BCE).",
    "Name_of_Weaver": "Hamza Khatri",
    "Mobile": "9687761242",
    "Email": "hamzakhatri57@gmail.com",
    "Website": "",
    "Facebook": "",
    "Instagram": "",
    "Source": "https://isha.sadhguru.org/in/en/outreach/save-the-weave/indian-weaves/ajrak-prints",
    "Refereces": ""
  },
  {
    "Name": "Kanchivaram",
    "Type_of_cloth": "Silk",
    "Village/_Town": "Kanchipuram",
    "District": "",
    "State_of_Origin": "Tamil Nadu",
    "Zone": "South",
    "Images": "https://narishakti.in/wp-content/uploads/sites/9/2021/09/kanchipuram.png",
    "Image": "https://images.sadhguru.org/sites/default/files/2020-07/Kanchivaram%20Silk.jpg",
    "Description": "The dominant player in the world of silk, this material finds strength from its linkages to Hindu mythology as it is stated to have been worn by Gods. Under King Krishna Devaraya, master weavers crafted saris from mulberry silk adorned with zari work. This fabric has been granted a GI tag and due to its demand across national and international markets, the expertise has been funded by government and non-governmental agencies.",
    "Name_of_Weaver": "Vimor Sarees",
    "Mobile": "804113 9720, 8025551514, 9632828585",
    "Email": "info@vimor.in",
    "Website": "vimor.in",
    "Facebook": "https://www.facebook.com/VimorSarees",
    "Instagram": "https://www.instagram.com/vimorsarees/",
    "Source": "https://isha.sadhguru.org/in/en/outreach/save-the-weave/indian-weaves/kanchipuram-silk",
    "Refereces": ""
  },
  {
    "Name": "Gadwal",
    "Type_of_cloth": "Cotton",
    "Village/_Town": "Gadwal",
    "District": "",
    "State_of_Origin": "Telangana",
    "Zone": "South",
    "Images": "https://narishakti.in/wp-content/uploads/sites/9/2021/09/gadwal.png",
    "Image": "https://images.sadhguru.org/sites/default/files/2020-07/Gadwal%20Cotton.jpg",
    "Description": "Inspired by religious practices and nature, this fabric showcases motifs in zari at the border. The Gadwal sari has a cotton body along with an attached silk border and pallu. Mythology of the land also claims that the weavers are the direct descendants of Jiveshwar Maharaj, the first weaver of Hindu gods and goddesses and hence the fabric became a popular choice for religious occasions.",
    "Name_of_Weaver": "Vimor Sarees",
    "Mobile": "804113 9720, 8025551514, 9632828585",
    "Email": "info@vimor.in",
    "Website": "vimor.in",
    "Facebook": "https://www.facebook.com/VimorSarees",
    "Instagram": "https://www.instagram.com/vimorsarees/",
    "Source": "https://isha.sadhguru.org/in/en/outreach/save-the-weave/indian-weaves/gadwal-cotton",
    "Refereces": ""
  }
]