
{
  "views": [
    {
      "scope": "Charts",
      "type": "Sheet",
      "description": "",
      "icon": "<svg enable-background=\"new 0 0 24 24\" height=\"512\" viewBox=\"0 0 24 24\" width=\"512\" xmlns=\"http://www.w3.org/2000/svg\"><path d=\"m21.5 23h-19c-1.378 0-2.5-1.122-2.5-2.5v-17c0-1.378 1.122-2.5 2.5-2.5h19c1.378 0 2.5 1.122 2.5 2.5v17c0 1.378-1.122 2.5-2.5 2.5zm-19-21c-.827 0-1.5.673-1.5 1.5v17c0 .827.673 1.5 1.5 1.5h19c.827 0 1.5-.673 1.5-1.5v-17c0-.827-.673-1.5-1.5-1.5z\"/><path d=\"m23.5 8h-23c-.276 0-.5-.224-.5-.5s.224-.5.5-.5h23c.276 0 .5.224.5.5s-.224.5-.5.5z\"/><path d=\"m23.5 13h-23c-.276 0-.5-.224-.5-.5s.224-.5.5-.5h23c.276 0 .5.224.5.5s-.224.5-.5.5z\"/><path d=\"m23.5 18h-23c-.276 0-.5-.224-.5-.5s.224-.5.5-.5h23c.276 0 .5.224.5.5s-.224.5-.5.5z\"/><path d=\"m6.5 23c-.276 0-.5-.224-.5-.5v-15c0-.276.224-.5.5-.5s.5.224.5.5v15c0 .276-.224.5-.5.5z\"/><path d=\"m12 23c-.276 0-.5-.224-.5-.5v-15c0-.276.224-.5.5-.5s.5.224.5.5v15c0 .276-.224.5-.5.5z\"/><path d=\"m17.5 23c-.276 0-.5-.224-.5-.5v-15c0-.276.224-.5.5-.5s.5.224.5.5v15c0 .276-.224.5-.5.5z\"/></svg>",
      "tabName": "Sheet",
      "query": {
        "dimensions": [
          {
            "name": "ID"
          },
          {
            "name": "Tag"
          },
          {
            "name": "Question"
          },
          {
            "name": "Options"
          },
          {
            "name": "Government_school_Value"
          },
          {
            "name": "Government_school_Percent"
          },
          {
            "name": "Private_school_value"
          },
          {
            "name": "Private_school_percent"
          },
          {
            "name": "Government-aided_Private_school_value"
          },
          {
            "name": "Government-aided_Private_school_percent"
          },
          {
            "name": "Madarsa_value"
          },
          {
            "name": "Madarsa_percent"
          },
          {
            "name": "My_child_dropped_out_of_school"
          },
          {
            "name": "Until_the_pandemic,_my_child_had_not_enrolled_in_any_school"
          },
          {
            "name": "My_child_never_enrolled_in_a_school"
          }
        ]
      },
      "visibility": {
        "filters": true,
        "sort": true,
        "weights": true
      },
      "options": {
        "primary_key": "ID",
        "paginate": null,
        "selector": "sheet_view",
        "columns": [
          "Parameter",
          "Details",
          "Government School (Value)",
          "Government School (%)",
          "Private School (Value)",
          "Private School (%)",
          "Aided School (Value)",
          "Aided School (%)",
          "Madarsa (Value)",
          "Madarsa (%)"
        ],
        "mergeColumnCells": [
          "Question"
        ],
        "columns_width": [
          "240",
          "240",
          "200",
          "200",
          "180",
          "200",
          "180",
          "200",
          "180",
          "200"
        ],
        "change_width_after_load": false,
        "freeze_first_column": true,
        "basename": "/datastory/",
        "renderType": {
          "Question": "default",
          "Options": "default",
          "Government_school_Value": "default",
          "Government_school_Percent": "bar",
          "Private_school_value": "default",
          "Private_school_percent": "bar",
          "Government-aided_Private_school_value": "default",
          "Government-aided_Private_school_percent": "bar",
          "Madarsa_value": "default",
          "Madarsa_percent": "bar"
        },
        "tooltip": false,
        "modal": false,
        "parameter": null,
        "click_url": false
      },
      "active": true
    }
  ],
  "mode":"",
  "metadata": {
    "ID": {
      "datatype": "number",
      "alias": "ID"
    },
    "Tag": {
      "datatype": "text",
      "alias": "Tag"
    },
    "Question": {
      "datatype": "text",
      "alias": "Parameter"
    },
    "Options": {
      "datatype": "text",
      "alias": "Details"
    },
    "Government_school_Value": {
      "datatype": "number",
      "alias": "Government School (Value)"
    },
    "Government_school_Percent": {
      "datatype": "number",
      "alias": "Government School (%)"
    },
    "Private_school_value": {
      "datatype": "number",
      "alias": "Private School (Value)"
    },
    "Private_school_percent": {
      "datatype": "number",
      "alias": "Private School (%)"
    },
    "Government-aided_Private_school_value": {
      "datatype": "number",
      "alias": "Aided School (Value)"
    },
    "Government-aided_Private_school_percent": {
      "datatype": "number",
      "alias": "Aided School (%)"
    },
    "Madarsa_value": {
      "datatype": "number",
      "alias": "Madarsa (Value)"
    },
    "Madarsa_percent": {
      "datatype": "number",
      "alias": "Madarsa (%)"
    },
    "My_child_dropped_out_of_school": {
      "datatype": "text",
      "alias": "My_child_dropped_out_of_school"
    },
    "Until_the_pandemic,_my_child_had_not_enrolled_in_any_school": {
      "datatype": "text",
      "alias": "Until_the_pandemic,_my_child_had_not_enrolled_in_any_school"
    },
    "My_child_never_enrolled_in_a_school": {
      "datatype": "text",
      "alias": "Not enrolled in school"
    }
  },
  "filters": {
    "title": "Filters",
    "description": "",
    "showToggle": false,
    "filterGroups": {
      "all": {
        "tabName": "",
        "tabDescription": "",
        "filters": [
          {
            "scope": "Dropdown",
            "datatype_icon": "text",
            "info": "",
            "options": {
              "label": "Tag",
              "column": "Tag",
              "selector": "filter-Tag",
              "barColor": "#ECECEC",
              "highlightColor": "red",
              "bins": 4,
              "showinOutFilter": false,
              "showInputBox": true,
              "isDouble": true,
              "default": {
                "value": ""
              },
              "initial": {
                "leftValue": 0,
                "rightValue": 0,
                "value": ""
              },
              "container_padding": {
                "left": 20,
                "right": 20,
                "top": 0,
                "bottom": 0
              },
              "height": 100,
              "dropdownWrapper": true,
              "showCount": true
            }
          },
          {
            "scope": "Dropdown",
            "datatype_icon": "text",
            "info": "",
            "options": {
              "label": "Parameter",
              "column": "Question",
              "selector": "filter-Question",
              "barColor": "#ECECEC",
              "highlightColor": "red",
              "bins": 4,
              "showinOutFilter": false,
              "showInputBox": true,
              "isDouble": true,
              "default": {
                "value": ""
              },
              "initial": {
                "leftValue": 0,
                "rightValue": 0,
                "value": ""
              },
              "container_padding": {
                "left": 20,
                "right": 20,
                "top": 0,
                "bottom": 0
              },
              "height": 100,
              "dropdownWrapper": true,
              "showCount": true
            }
          }
        ]
      }
    },
    "sidebar_filters": false,
    "search_enabled": false,
    "is_mobile_view": "no",
    "primary_key": "ID",
    "search_keys": [
      "ID","Government_school_Value","Options"
    ]
  },
  "download": true,
  "intro": [
    {
      "title": "",
      "intro": "",
      "element": ".hc-view-container[data-view='Table']"
    },
    {
      "title": "",
      "intro": "",
      "element": ".hc-filter-container"
    },
    {
      "element": ".hc-download-dashboard-data",
      "title": null,
      "intro": null
    }
  ],
  "id": "3"
}